\relax 
\providecommand\hyper@newdestlabel[2]{}
\providecommand\HyperFirstAtBeginDocument{\AtBeginDocument}
\HyperFirstAtBeginDocument{\ifx\hyper@anchor\@undefined
\global\let\oldcontentsline\contentsline
\gdef\contentsline#1#2#3#4{\oldcontentsline{#1}{#2}{#3}}
\global\let\oldnewlabel\newlabel
\gdef\newlabel#1#2{\newlabelxx{#1}#2}
\gdef\newlabelxx#1#2#3#4#5#6{\oldnewlabel{#1}{{#2}{#3}}}
\AtEndDocument{\ifx\hyper@anchor\@undefined
\let\contentsline\oldcontentsline
\let\newlabel\oldnewlabel
\fi}
\fi}
\global\let\hyper@last\relax 
\gdef\HyperFirstAtBeginDocument#1{#1}
\providecommand\HyField@AuxAddToFields[1]{}
\providecommand\HyField@AuxAddToCoFields[2]{}
\bibstyle{IEEEtran}
\bibdata{labprojref}
\bibcite{ASAPthesis}{1}
\bibcite{ASAP}{2}
\bibcite{EMexplorer}{3}
\bibcite{emAnalyse}{4}
\bibcite{EMAP}{5}
\bibcite{EMCoS}{6}
\bibcite{emGine}{7}
\bibcite{ERMES}{8}
\bibcite{FastHenry}{9}
\bibcite{FEKOLite}{10}
\bibcite{Meep}{11}
\bibcite{MMANA-GAL}{12}
\bibcite{OpenMaXwell}{13}
\bibcite{4NEC2}{14}
\@writefile{toc}{\contentsline {section}{\numberline {I}Introduction}{1}{section.1}}
\@writefile{toc}{\contentsline {section}{\numberline {II}Existing Solvers}{1}{section.2}}
\@writefile{toc}{\contentsline {section}{\numberline {III}Conclusion}{1}{section.3}}
\@writefile{toc}{\contentsline {section}{References}{1}{section*.1}}
\citation{ASAPthesis}
\citation{ASAP}
\citation{EMexplorer}
\citation{emAnalyse}
\citation{EMAP}
\citation{EMCoS}
\citation{emGine}
\citation{ERMES}
\citation{FastHenry}
\citation{FEKOLite}
\citation{Meep}
\citation{MMANA-GAL}
\citation{4NEC2}
\citation{OpenMaXwell}
\@writefile{toc}{\contentsline {section}{Appendix\nobreakspace  {}A: Comparison Between Some Existing Programs}{A}{section*.2}}
\newlabel{app:compare}{{A}{A}{\appendixname ~\thesectiondis \\* Comparison Between Some Existing Programs}{section*.2}{}}
\@writefile{toc}{\contentsline {subsection}{\numberline {\unhbox \voidb@x \hbox {A-A}}ASAP}{A}{subsection.Appendix.A.1}}
\@writefile{toc}{\contentsline {subsection}{\numberline {\unhbox \voidb@x \hbox {A-B}}EM Explorer}{A}{subsection.Appendix.A.2}}
\@writefile{toc}{\contentsline {subsection}{\numberline {\unhbox \voidb@x \hbox {A-C}}emAnalyse}{A}{subsection.Appendix.A.3}}
\@writefile{toc}{\contentsline {subsection}{\numberline {\unhbox \voidb@x \hbox {A-D}}EMAP}{A}{subsection.Appendix.A.4}}
\@writefile{toc}{\contentsline {subsection}{\numberline {\unhbox \voidb@x \hbox {A-E}}EMCoS Antenna VLab SV}{A}{subsection.Appendix.A.5}}
\@writefile{toc}{\contentsline {subsection}{\numberline {\unhbox \voidb@x \hbox {A-F}}emGine Environment}{A}{subsection.Appendix.A.6}}
\@writefile{toc}{\contentsline {subsection}{\numberline {\unhbox \voidb@x \hbox {A-G}}ERMES}{A}{subsection.Appendix.A.7}}
\@writefile{toc}{\contentsline {subsection}{\numberline {\unhbox \voidb@x \hbox {A-H}}FastCap and FastHenry}{A}{subsection.Appendix.A.8}}
\@writefile{toc}{\contentsline {subsection}{\numberline {\unhbox \voidb@x \hbox {A-I}}FEKO Lite}{A}{subsection.Appendix.A.9}}
\@writefile{toc}{\contentsline {subsection}{\numberline {\unhbox \voidb@x \hbox {A-J}}MEEP}{A}{subsection.Appendix.A.10}}
\@writefile{toc}{\contentsline {subsection}{\numberline {\unhbox \voidb@x \hbox {A-K}}MMANA-GAL (basic)}{A}{subsection.Appendix.A.11}}
\@writefile{toc}{\contentsline {subsection}{\numberline {\unhbox \voidb@x \hbox {A-L}}4NEC2}{A}{subsection.Appendix.A.12}}
\@writefile{toc}{\contentsline {subsection}{\numberline {\unhbox \voidb@x \hbox {A-M}}openEMS}{A}{subsection.Appendix.A.13}}
\@writefile{toc}{\contentsline {subsection}{\numberline {\unhbox \voidb@x \hbox {A-N}}OpenMaxwell}{A}{subsection.Appendix.A.14}}
\@writefile{toc}{\contentsline {subsection}{\numberline {\unhbox \voidb@x \hbox {A-O}}Puma-EM}{A}{subsection.Appendix.A.15}}
\@writefile{toc}{\contentsline {subsection}{\numberline {\unhbox \voidb@x \hbox {A-P}}Sonnet Lite}{A}{subsection.Appendix.A.16}}
