This is BibTeX, Version 0.99dThe top-level auxiliary file: main.aux
The style file: IEEEtran.bst
Database file #1: labprojref.bib
Warning--entry type for "ASAPthesis" isn't style-file defined
--line 47 of file labprojref.bib
-- IEEEtran.bst version 1.13 (2008/09/30) by Michael Shell.
-- http://www.michaelshell.org/tex/ieeetran/bibtex/
-- See the "IEEEtran_bst_HOWTO.pdf" manual for usage information.

Done.
(There was 1 warning)
