\relax 
\providecommand\hyper@newdestlabel[2]{}
\providecommand\HyperFirstAtBeginDocument{\AtBeginDocument}
\HyperFirstAtBeginDocument{\ifx\hyper@anchor\@undefined
\global\let\oldcontentsline\contentsline
\gdef\contentsline#1#2#3#4{\oldcontentsline{#1}{#2}{#3}}
\global\let\oldnewlabel\newlabel
\gdef\newlabel#1#2{\newlabelxx{#1}#2}
\gdef\newlabelxx#1#2#3#4#5#6{\oldnewlabel{#1}{{#2}{#3}}}
\AtEndDocument{\ifx\hyper@anchor\@undefined
\let\contentsline\oldcontentsline
\let\newlabel\oldnewlabel
\fi}
\fi}
\global\let\hyper@last\relax 
\gdef\HyperFirstAtBeginDocument#1{#1}
\providecommand\HyField@AuxAddToFields[1]{}
\providecommand\HyField@AuxAddToCoFields[2]{}
\providecommand \oddpage@label [2]{}
\@writefile{toc}{\contentsline {chapter}{\numberline {1}Hierarchical Index}{1}{chapter.1}}
\@writefile{lof}{\addvspace {10\p@ }}
\@writefile{lot}{\addvspace {10\p@ }}
\@writefile{toc}{\contentsline {section}{\numberline {1.1}Class Hierarchy}{1}{section.1.1}}
\@writefile{toc}{\contentsline {chapter}{\numberline {2}Class Index}{3}{chapter.2}}
\@writefile{lof}{\addvspace {10\p@ }}
\@writefile{lot}{\addvspace {10\p@ }}
\@writefile{toc}{\contentsline {section}{\numberline {2.1}Class List}{3}{section.2.1}}
\@writefile{toc}{\contentsline {chapter}{\numberline {3}Class Documentation}{5}{chapter.3}}
\@writefile{lof}{\addvspace {10\p@ }}
\@writefile{lot}{\addvspace {10\p@ }}
\@writefile{toc}{\contentsline {section}{\numberline {3.1}nec\discretionary {\unhbox \voidb@x \hbox {\relax \fontsize  {7}{8}\selectfont  $\leftarrow \joinrel  \rhook $}}{}{}\_\discretionary {\unhbox \voidb@x \hbox {\relax \fontsize  {7}{8}\selectfont  $\leftarrow \joinrel  \rhook $}}{}{}backend.\discretionary {\unhbox \voidb@x \hbox {\relax \fontsize  {7}{8}\selectfont  $\leftarrow \joinrel  \rhook $}}{}{}Global Class Reference}{5}{section.3.1}}
\newlabel{classnec__backend_1_1_global}{{3.1}{5}{nec\+\_\+backend.\+Global Class Reference}{section.3.1}{}}
\newlabel{classnec__backend_1_1_global_a2d3c17c91676fafdfebea9d399d4ecf9}{{3.1}{5}{Public Member Functions}{section*.2}{}}
\newlabel{classnec__backend_1_1_global_a7c91dbc8a2cb98d68e8f9f1338be5370}{{3.1}{5}{Static Public Member Functions}{section*.3}{}}
\newlabel{classnec__backend_1_1_global_a1606bdec1bbadb23a0a5b2f400c268cb}{{3.1}{5}{Static Public Member Functions}{section*.3}{}}
\newlabel{classnec__backend_1_1_global_ae5ef26353d13c0bfa692700967ac5d8f}{{3.1}{5}{Static Public Member Functions}{section*.3}{}}
\newlabel{classnec__backend_1_1_global_a6a4721e228be178be3db923b2f1f20f2}{{3.1}{5}{Static Public Member Functions}{section*.3}{}}
\newlabel{classnec__backend_1_1_global_ac497ae85329d0152182a1a273923bf48}{{3.1}{5}{Static Public Member Functions}{section*.3}{}}
\newlabel{classnec__backend_1_1_global_a62246ca9e630cfa32c90bef02b76d621}{{3.1}{5}{Static Public Member Functions}{section*.3}{}}
\newlabel{classnec__backend_1_1_global_af16a2a4be2b737f1da0d67fd6f2be335}{{3.1}{5}{Static Public Member Functions}{section*.3}{}}
\newlabel{classnec__backend_1_1_global_afb520c7b35e1f33d94dc4dc13fbbfe09}{{3.1}{5}{Static Public Member Functions}{section*.3}{}}
\newlabel{classnec__backend_1_1_global_ac04ef353eedb0ce808ff589c35fb2ab3}{{3.1}{5}{Static Public Member Functions}{section*.3}{}}
\newlabel{classnec__backend_1_1_global_aa2cefb5a2f3706617401231a1ef21684}{{3.1}{5}{Static Public Member Functions}{section*.3}{}}
\newlabel{classnec__backend_1_1_global_aba5111024d8190fbccd730fa0b717aa2}{{3.1}{5}{Static Public Member Functions}{section*.3}{}}
\newlabel{classnec__backend_1_1_global_af01d0202b38a252e4731175ab803f91f}{{3.1}{5}{Static Public Member Functions}{section*.3}{}}
\newlabel{classnec__backend_1_1_global_a30e4c041607e95836ba1ad61a52bdbba}{{3.1}{5}{Static Public Member Functions}{section*.3}{}}
\newlabel{classnec__backend_1_1_global_ae94ff5a2449025c54ba362fdc762849b}{{3.1}{5}{Static Public Member Functions}{section*.3}{}}
\newlabel{classnec__backend_1_1_global_ad4138d8f906b13b52151e83c442be5fd}{{3.1}{5}{Static Public Member Functions}{section*.3}{}}
\@writefile{toc}{\contentsline {section}{\numberline {3.2}nec\discretionary {\unhbox \voidb@x \hbox {\relax \fontsize  {7}{8}\selectfont  $\leftarrow \joinrel  \rhook $}}{}{}\_\discretionary {\unhbox \voidb@x \hbox {\relax \fontsize  {7}{8}\selectfont  $\leftarrow \joinrel  \rhook $}}{}{}backend.\discretionary {\unhbox \voidb@x \hbox {\relax \fontsize  {7}{8}\selectfont  $\leftarrow \joinrel  \rhook $}}{}{}Helper Class Reference}{6}{section.3.2}}
\newlabel{classnec__backend_1_1_helper}{{3.2}{6}{nec\+\_\+backend.\+Helper Class Reference}{section.3.2}{}}
\newlabel{classnec__backend_1_1_helper_a73c613917727fb9b7cd4d026687f7a2c}{{3.2}{6}{Static Public Member Functions}{section*.4}{}}
\newlabel{classnec__backend_1_1_helper_ace538b3d7f884479fa973972d8db4b0e}{{3.2}{6}{Static Public Member Functions}{section*.4}{}}
\newlabel{classnec__backend_1_1_helper_a22d96d93559474998523b44e65dcbd6e}{{3.2}{6}{Static Public Member Functions}{section*.4}{}}
\newlabel{classnec__backend_1_1_helper_a69f20848b23ca4239c824a635dd20779}{{3.2}{6}{Static Public Member Functions}{section*.4}{}}
\newlabel{classnec__backend_1_1_helper_a4bee3b8b7a312eacb7ed42166ff8eed6}{{3.2}{6}{Static Public Member Functions}{section*.4}{}}
\newlabel{classnec__backend_1_1_helper_a667689849b1f0d94a7ee8cd2afa761f2}{{3.2}{6}{Static Public Member Functions}{section*.4}{}}
\newlabel{classnec__backend_1_1_helper_a1c7a8ae1ce53e5285d0c010951e5f11d}{{3.2}{6}{Static Public Member Functions}{section*.4}{}}
\newlabel{classnec__backend_1_1_helper_a3b258dfbdacb682e5133ba48fac60665}{{3.2}{6}{Static Public Member Functions}{section*.4}{}}
\newlabel{classnec__backend_1_1_helper_acf6e33d8fb2aedc8f0d9b41828cc3f60}{{3.2}{6}{Static Public Member Functions}{section*.4}{}}
\newlabel{classnec__backend_1_1_helper_af8807e814286332d60a5798e47c3f89d}{{3.2}{6}{Static Public Member Functions}{section*.4}{}}
\newlabel{classnec__backend_1_1_helper_a5dbb6558d9f8d7166d055a71ba9dbe31}{{3.2}{6}{Static Public Member Functions}{section*.4}{}}
\newlabel{classnec__backend_1_1_helper_afbb2bf66f03f3c22af4d15f522b6e0c5}{{3.2}{6}{Static Public Member Functions}{section*.4}{}}
\newlabel{classnec__backend_1_1_helper_aed2d0c354f15a42b3ab30167b3470c98}{{3.2}{6}{Static Public Member Functions}{section*.4}{}}
\newlabel{classnec__backend_1_1_helper_ad41024a978f90ccf4e6301b3a67b77ae}{{3.2}{6}{Static Public Member Functions}{section*.4}{}}
\newlabel{classnec__backend_1_1_helper_a9c071ef50244ac2eda715736db34458e}{{3.2}{6}{Static Public Member Functions}{section*.4}{}}
\newlabel{classnec__backend_1_1_helper_a481c4d862848e279676ed21efde8e75a}{{3.2}{6}{Static Public Member Functions}{section*.4}{}}
\newlabel{classnec__backend_1_1_helper_a9cc80a94f3a77d0b3bacd9e25adf3945}{{3.2}{6}{Static Public Member Functions}{section*.4}{}}
\newlabel{classnec__backend_1_1_helper_a141c32bddfb47aa5908bad69ca84ac6a}{{3.2}{6}{Static Public Member Functions}{section*.4}{}}
\newlabel{classnec__backend_1_1_helper_ac4c60193570e8ce215cadc6f76cc7959}{{3.2}{6}{Static Public Member Functions}{section*.4}{}}
\@writefile{toc}{\contentsline {section}{\numberline {3.3}Helper\discretionary {\unhbox \voidb@x \hbox {\relax \fontsize  {7}{8}\selectfont  $\leftarrow \joinrel  \rhook $}}{}{}Test Class Reference}{7}{section.3.3}}
\newlabel{class_helper_test}{{3.3}{7}{Helper\+Test Class Reference}{section.3.3}{}}
\newlabel{class_helper_test_a9f60b8b071d1513fa3ab055f6c585378}{{3.3}{7}{Public Member Functions}{section*.5}{}}
\newlabel{class_helper_test_a81b43f14c72f962545d55ec50b67269c}{{3.3}{7}{Public Member Functions}{section*.5}{}}
\newlabel{class_helper_test_a2132925dc7730f29f91f0c30b1ace128}{{3.3}{7}{Public Member Functions}{section*.5}{}}
\newlabel{class_helper_test_a5a14a5ad9806c5a951926ee60fc59941}{{3.3}{7}{Public Member Functions}{section*.5}{}}
\newlabel{class_helper_test_ab3068c67a111303992781f1f4eff8a8d}{{3.3}{7}{Public Member Functions}{section*.5}{}}
\newlabel{class_helper_test_a76967edfaf7dab9a9228688454b72584}{{3.3}{7}{Public Member Functions}{section*.5}{}}
\@writefile{toc}{\contentsline {section}{\numberline {3.4}gui.\discretionary {\unhbox \voidb@x \hbox {\relax \fontsize  {7}{8}\selectfont  $\leftarrow \joinrel  \rhook $}}{}{}Main\discretionary {\unhbox \voidb@x \hbox {\relax \fontsize  {7}{8}\selectfont  $\leftarrow \joinrel  \rhook $}}{}{}Menu Class Reference}{7}{section.3.4}}
\newlabel{classgui_1_1_main_menu}{{3.4}{7}{gui.\+Main\+Menu Class Reference}{section.3.4}{}}
\newlabel{classgui_1_1_main_menu_a6164cf1233c31ab52c34533c07c63247}{{3.4}{7}{Public Member Functions}{section*.6}{}}
\newlabel{classgui_1_1_main_menu_a08a802e90d9be17bcd1e638b228717a0}{{3.4}{7}{Public Member Functions}{section*.6}{}}
\newlabel{classgui_1_1_main_menu_ae73e8f36493e0da15a53c191cb767c80}{{3.4}{7}{Public Member Functions}{section*.6}{}}
\newlabel{classgui_1_1_main_menu_acfd11598524a04f99e40ddb7849552a9}{{3.4}{7}{Public Member Functions}{section*.6}{}}
\newlabel{classgui_1_1_main_menu_a092788d8f7c62440000d4ee221f59d6f}{{3.4}{7}{Public Member Functions}{section*.6}{}}
\newlabel{classgui_1_1_main_menu_ac3b4695bca69e3d031c89257021d0317}{{3.4}{7}{Public Member Functions}{section*.6}{}}
\newlabel{classgui_1_1_main_menu_ada45202bfbfc1fe7b44cc6a7d3e7e242}{{3.4}{7}{Public Member Functions}{section*.6}{}}
\newlabel{classgui_1_1_main_menu_a405a726ea15fdff01460bbf87604b824}{{3.4}{7}{Public Member Functions}{section*.6}{}}
\newlabel{classgui_1_1_main_menu_a5aadffddb10b8135e58fb812914be380}{{3.4}{7}{Static Public Member Functions}{section*.7}{}}
\newlabel{classgui_1_1_main_menu_a9129009d4d26be54609b51c22b18aa83}{{3.4}{7}{Static Public Member Functions}{section*.7}{}}
\newlabel{classgui_1_1_main_menu_af0f93c7b0083c57d4b1b76335dd11f28}{{3.4}{7}{Static Public Member Functions}{section*.7}{}}
\@writefile{toc}{\contentsline {subsection}{\numberline {3.4.1}Constructor \& Destructor Documentation}{8}{subsection.3.4.1}}
\@writefile{toc}{\contentsline {subsubsection}{\numberline {3.4.1.1}Main\discretionary {\unhbox \voidb@x \hbox {\relax \fontsize  {7}{8}\selectfont  $\leftarrow \joinrel  \rhook $}}{}{}Menu(\discretionary {\unhbox \voidb@x \hbox {\relax \fontsize  {7}{8}\selectfont  $\leftarrow \joinrel  \rhook $}}{}{}Read\discretionary {\unhbox \voidb@x \hbox {\relax \fontsize  {7}{8}\selectfont  $\leftarrow \joinrel  \rhook $}}{}{}Template\discretionary {\unhbox \voidb@x \hbox {\relax \fontsize  {7}{8}\selectfont  $\leftarrow \joinrel  \rhook $}}{}{}Files template\discretionary {\unhbox \voidb@x \hbox {\relax \fontsize  {7}{8}\selectfont  $\leftarrow \joinrel  \rhook $}}{}{}Object)}{8}{subsubsection.3.4.1.1}}
\newlabel{classgui_1_1_main_menu_ab2f8e44f994ad4c2be20084464517a7f}{{3.4.1.1}{8}{Main\+Menu(\+Read\+Template\+Files template\+Object)}{subsubsection.3.4.1.1}{}}
\@writefile{toc}{\contentsline {subsection}{\numberline {3.4.2}Member Function Documentation}{8}{subsection.3.4.2}}
\@writefile{toc}{\contentsline {subsubsection}{\numberline {3.4.2.1}main(\discretionary {\unhbox \voidb@x \hbox {\relax \fontsize  {7}{8}\selectfont  $\leftarrow \joinrel  \rhook $}}{}{}String[] args)}{8}{subsubsection.3.4.2.1}}
\newlabel{classgui_1_1_main_menu_a1864d3a6fb80604011b9498b40aebbad}{{3.4.2.1}{8}{main(\+String[] args)}{subsubsection.3.4.2.1}{}}
\@writefile{toc}{\contentsline {section}{\numberline {3.5}nec\discretionary {\unhbox \voidb@x \hbox {\relax \fontsize  {7}{8}\selectfont  $\leftarrow \joinrel  \rhook $}}{}{}\_\discretionary {\unhbox \voidb@x \hbox {\relax \fontsize  {7}{8}\selectfont  $\leftarrow \joinrel  \rhook $}}{}{}backend.\discretionary {\unhbox \voidb@x \hbox {\relax \fontsize  {7}{8}\selectfont  $\leftarrow \joinrel  \rhook $}}{}{}Nec\discretionary {\unhbox \voidb@x \hbox {\relax \fontsize  {7}{8}\selectfont  $\leftarrow \joinrel  \rhook $}}{}{}Generator Class Reference}{8}{section.3.5}}
\newlabel{classnec__backend_1_1_nec_generator}{{3.5}{8}{nec\+\_\+backend.\+Nec\+Generator Class Reference}{section.3.5}{}}
\newlabel{classnec__backend_1_1_nec_generator_a2548807390511d032a089c915f9d38e7}{{3.5}{8}{Public Member Functions}{section*.8}{}}
\newlabel{classnec__backend_1_1_nec_generator_a697d39c388b073ffb0a36370c3c146b9}{{3.5}{8}{Public Member Functions}{section*.8}{}}
\newlabel{classnec__backend_1_1_nec_generator_a2ea87246cf7ce1da30fad1a0afa543f8}{{3.5}{8}{Public Member Functions}{section*.8}{}}
\newlabel{classnec__backend_1_1_nec_generator_aecaf5e18bb8aa0e4f2815bcfdbd8c843}{{3.5}{8}{Public Member Functions}{section*.8}{}}
\newlabel{classnec__backend_1_1_nec_generator_a65a99b2f3983f076234f245ab780aa6e}{{3.5}{8}{Public Member Functions}{section*.8}{}}
\newlabel{classnec__backend_1_1_nec_generator_a86a06debeb5b2b3b557ad2595e4f7b6c}{{3.5}{8}{Public Member Functions}{section*.8}{}}
\newlabel{classnec__backend_1_1_nec_generator_affe5df64767ab6db5e8edd8339506d4e}{{3.5}{8}{Public Member Functions}{section*.8}{}}
\newlabel{classnec__backend_1_1_nec_generator_af7800e772bf46fd53f0597d99112c49a}{{3.5}{8}{Public Member Functions}{section*.8}{}}
\newlabel{classnec__backend_1_1_nec_generator_a076ada592998610342f16b59d102f269}{{3.5}{8}{Public Member Functions}{section*.8}{}}
\newlabel{classnec__backend_1_1_nec_generator_a6bffe366716c9c89f36664125722d69c}{{3.5}{8}{Public Member Functions}{section*.8}{}}
\newlabel{classnec__backend_1_1_nec_generator_aedaa6f46a10f8956bda262f835fc11be}{{3.5}{8}{Public Member Functions}{section*.8}{}}
\newlabel{classnec__backend_1_1_nec_generator_a46622fcc913058bb8b62a98dd01fca31}{{3.5}{8}{Public Member Functions}{section*.8}{}}
\newlabel{classnec__backend_1_1_nec_generator_ad1fe755f4e443072a072a76b6c30be0e}{{3.5}{8}{Public Member Functions}{section*.8}{}}
\newlabel{classnec__backend_1_1_nec_generator_a0fcec60ea8e3e1cbaa9b1cf0deaa53c1}{{3.5}{8}{Public Member Functions}{section*.8}{}}
\newlabel{classnec__backend_1_1_nec_generator_a3cdb5abe18cd62d46053b623704c2ed5}{{3.5}{8}{Public Member Functions}{section*.8}{}}
\newlabel{classnec__backend_1_1_nec_generator_aef6b16c6c38b93bcfdc3ce6dc1886a27}{{3.5}{8}{Public Member Functions}{section*.8}{}}
\newlabel{classnec__backend_1_1_nec_generator_a209489e53f38d3e0630f71cf8fdcd2ba}{{3.5}{8}{Public Member Functions}{section*.8}{}}
\newlabel{classnec__backend_1_1_nec_generator_a6b41cd87a000d024c0c752e1e8a63b97}{{3.5}{8}{Public Member Functions}{section*.8}{}}
\newlabel{classnec__backend_1_1_nec_generator_a682463061239f794a96284786bb561a3}{{3.5}{8}{Public Member Functions}{section*.8}{}}
\newlabel{classnec__backend_1_1_nec_generator_a74cb9f8dc658809eece3b09afb8af256}{{3.5}{8}{Public Member Functions}{section*.8}{}}
\newlabel{classnec__backend_1_1_nec_generator_aba077edc13331ae988e4fd9e8e628cc1}{{3.5}{8}{Public Member Functions}{section*.8}{}}
\newlabel{classnec__backend_1_1_nec_generator_a685d04b840d26536bc2fe129912b345f}{{3.5}{8}{Public Member Functions}{section*.8}{}}
\newlabel{classnec__backend_1_1_nec_generator_afb16e5b7c1a7c74349b27422449af6a4}{{3.5}{9}{Public Member Functions}{section*.8}{}}
\newlabel{classnec__backend_1_1_nec_generator_a11c164d9915106545a6a5f6c61ca1c72}{{3.5}{9}{Public Member Functions}{section*.8}{}}
\newlabel{classnec__backend_1_1_nec_generator_a0f492945cfe9bc08c6dd327ba886aef9}{{3.5}{9}{Public Member Functions}{section*.8}{}}
\newlabel{classnec__backend_1_1_nec_generator_ac00f4d94a538b1a0b4f42feb13d1e908}{{3.5}{9}{Public Member Functions}{section*.8}{}}
\@writefile{toc}{\contentsline {section}{\numberline {3.6}Nec\discretionary {\unhbox \voidb@x \hbox {\relax \fontsize  {7}{8}\selectfont  $\leftarrow \joinrel  \rhook $}}{}{}Generator\discretionary {\unhbox \voidb@x \hbox {\relax \fontsize  {7}{8}\selectfont  $\leftarrow \joinrel  \rhook $}}{}{}Test Class Reference}{9}{section.3.6}}
\newlabel{class_nec_generator_test}{{3.6}{9}{Nec\+Generator\+Test Class Reference}{section.3.6}{}}
\newlabel{class_nec_generator_test_ae7513147feec9150c18f96d2b70ad007}{{3.6}{9}{Public Member Functions}{section*.9}{}}
\newlabel{class_nec_generator_test_a614a89edd9e1bbde92f908d4990172ea}{{3.6}{9}{Public Member Functions}{section*.9}{}}
\newlabel{class_nec_generator_test_a9dd6163605c8a541e7053f01dfbae222}{{3.6}{9}{Public Member Functions}{section*.9}{}}
\newlabel{class_nec_generator_test_a14e278ceaf4485d49362d8e64237deef}{{3.6}{9}{Public Member Functions}{section*.9}{}}
\newlabel{class_nec_generator_test_a720326332e18ad17c9f0ecc2a8276cbf}{{3.6}{9}{Public Member Functions}{section*.9}{}}
\newlabel{class_nec_generator_test_ace3f5edaf61c661f9ca9072b2a5fd1ff}{{3.6}{9}{Public Member Functions}{section*.9}{}}
\newlabel{class_nec_generator_test_ac622ab7129367ff7017fd93881c69a9f}{{3.6}{9}{Public Member Functions}{section*.9}{}}
\newlabel{class_nec_generator_test_aa882e66b658f96c4dc2016b1b59fb18f}{{3.6}{9}{Public Member Functions}{section*.9}{}}
\newlabel{class_nec_generator_test_a6ea8efecc2ab6588bbcbcc4ce11767fc}{{3.6}{9}{Public Member Functions}{section*.9}{}}
\newlabel{class_nec_generator_test_a200a05de1074283ea8139246cd97c49c}{{3.6}{9}{Public Member Functions}{section*.9}{}}
\newlabel{class_nec_generator_test_a0ccad8e01037dc833f91f97347af00f9}{{3.6}{9}{Public Member Functions}{section*.9}{}}
\newlabel{class_nec_generator_test_a9fe288f3c70c7ca5f769aefe07f30e07}{{3.6}{9}{Public Member Functions}{section*.9}{}}
\newlabel{class_nec_generator_test_a50c6803463a86facf8150be1c193f555}{{3.6}{9}{Public Member Functions}{section*.9}{}}
\newlabel{class_nec_generator_test_a132ae55e904e446434f1cf99317e7e3c}{{3.6}{9}{Public Member Functions}{section*.9}{}}
\@writefile{toc}{\contentsline {section}{\numberline {3.7}nec\discretionary {\unhbox \voidb@x \hbox {\relax \fontsize  {7}{8}\selectfont  $\leftarrow \joinrel  \rhook $}}{}{}\_\discretionary {\unhbox \voidb@x \hbox {\relax \fontsize  {7}{8}\selectfont  $\leftarrow \joinrel  \rhook $}}{}{}backend.\discretionary {\unhbox \voidb@x \hbox {\relax \fontsize  {7}{8}\selectfont  $\leftarrow \joinrel  \rhook $}}{}{}Optimisation Class Reference}{9}{section.3.7}}
\newlabel{classnec__backend_1_1_optimisation}{{3.7}{9}{nec\+\_\+backend.\+Optimisation Class Reference}{section.3.7}{}}
\newlabel{classnec__backend_1_1_optimisation_a0ff3f8781fe012918a062e1698c7ff90}{{3.7}{9}{Public Member Functions}{section*.10}{}}
\newlabel{classnec__backend_1_1_optimisation_a149e3871599ca4287a7a7851887cb778}{{3.7}{9}{Public Member Functions}{section*.10}{}}
\newlabel{classnec__backend_1_1_optimisation_ad5fb1c807b5e936ccf17c4b2f2ad4c23}{{3.7}{9}{Public Member Functions}{section*.10}{}}
\@writefile{toc}{\contentsline {section}{\numberline {3.8}file\discretionary {\unhbox \voidb@x \hbox {\relax \fontsize  {7}{8}\selectfont  $\leftarrow \joinrel  \rhook $}}{}{}\_\discretionary {\unhbox \voidb@x \hbox {\relax \fontsize  {7}{8}\selectfont  $\leftarrow \joinrel  \rhook $}}{}{}operation.\discretionary {\unhbox \voidb@x \hbox {\relax \fontsize  {7}{8}\selectfont  $\leftarrow \joinrel  \rhook $}}{}{}Read\discretionary {\unhbox \voidb@x \hbox {\relax \fontsize  {7}{8}\selectfont  $\leftarrow \joinrel  \rhook $}}{}{}Template\discretionary {\unhbox \voidb@x \hbox {\relax \fontsize  {7}{8}\selectfont  $\leftarrow \joinrel  \rhook $}}{}{}Files Class Reference}{10}{section.3.8}}
\newlabel{classfile__operation_1_1_read_template_files}{{3.8}{10}{file\+\_\+operation.\+Read\+Template\+Files Class Reference}{section.3.8}{}}
\newlabel{classfile__operation_1_1_read_template_files_accca03d37a0a5c5f83f1dcc267d2035f}{{3.8}{10}{Public Member Functions}{section*.11}{}}
\newlabel{classfile__operation_1_1_read_template_files_a282b246d7f36c06bbfe91914c9ad3b2b}{{3.8}{10}{Public Member Functions}{section*.11}{}}
\newlabel{classfile__operation_1_1_read_template_files_a94b454c4846173586835a82815add5ef}{{3.8}{10}{Public Member Functions}{section*.11}{}}
\newlabel{classfile__operation_1_1_read_template_files_a0232a0323f91c50d4e82b45c5b8b5f0a}{{3.8}{10}{Public Member Functions}{section*.11}{}}
\newlabel{classfile__operation_1_1_read_template_files_ac5db4d92951a68e3fd8ddbf44e10ea9c}{{3.8}{10}{Public Member Functions}{section*.11}{}}
\newlabel{classfile__operation_1_1_read_template_files_a9637a8b44e612586b73e1d899cf18215}{{3.8}{10}{Public Member Functions}{section*.11}{}}
\newlabel{classfile__operation_1_1_read_template_files_ad2870c00e9155bcc66006baf26e6709a}{{3.8}{10}{Public Member Functions}{section*.11}{}}
\newlabel{classfile__operation_1_1_read_template_files_a4c771afa500efb3081fd545bf41a9828}{{3.8}{10}{Public Member Functions}{section*.11}{}}
\newlabel{classfile__operation_1_1_read_template_files_add4baf98e39a8f7b6a153aa9b2789f29}{{3.8}{10}{Public Member Functions}{section*.11}{}}
\newlabel{classfile__operation_1_1_read_template_files_abaf9017516061c78b44c92b0dd2c47d8}{{3.8}{10}{Public Member Functions}{section*.11}{}}
\@writefile{toc}{\contentsline {section}{\numberline {3.9}nec\discretionary {\unhbox \voidb@x \hbox {\relax \fontsize  {7}{8}\selectfont  $\leftarrow \joinrel  \rhook $}}{}{}\_\discretionary {\unhbox \voidb@x \hbox {\relax \fontsize  {7}{8}\selectfont  $\leftarrow \joinrel  \rhook $}}{}{}backend.\discretionary {\unhbox \voidb@x \hbox {\relax \fontsize  {7}{8}\selectfont  $\leftarrow \joinrel  \rhook $}}{}{}Structure Class Reference}{10}{section.3.9}}
\newlabel{classnec__backend_1_1_structure}{{3.9}{10}{nec\+\_\+backend.\+Structure Class Reference}{section.3.9}{}}
\newlabel{classnec__backend_1_1_structure_af84b1d788d9b013d76fc0fb230bc9137}{{3.9}{10}{Public Member Functions}{section*.12}{}}
\newlabel{classnec__backend_1_1_structure_a74bbfc3e7d793ce553adfd76c632f287}{{3.9}{10}{Public Member Functions}{section*.12}{}}
\newlabel{classnec__backend_1_1_structure_a345d9a77277d4d4dafbcf30a3503b0ed}{{3.9}{10}{Public Member Functions}{section*.12}{}}
\newlabel{classnec__backend_1_1_structure_ae059a58fcbeb6a57fa91f01966579f73}{{3.9}{10}{Public Member Functions}{section*.12}{}}
\newlabel{classnec__backend_1_1_structure_a8f6f36e79be3e366ca899f02ffa44e34}{{3.9}{10}{Public Member Functions}{section*.12}{}}
\newlabel{classnec__backend_1_1_structure_a9498d2a6300738c2e797c93490ddffe0}{{3.9}{10}{Public Member Functions}{section*.12}{}}
\newlabel{classnec__backend_1_1_structure_a43c93ea65beeb70e7fabdff49122f14e}{{3.9}{10}{Public Member Functions}{section*.12}{}}
\newlabel{classnec__backend_1_1_structure_a8081fddbdfd904a2d65e91d3ab39984d}{{3.9}{10}{Public Member Functions}{section*.12}{}}
\newlabel{classnec__backend_1_1_structure_a2eac63edad416c2e3c9afc95c9838be5}{{3.9}{10}{Public Member Functions}{section*.12}{}}
\newlabel{classnec__backend_1_1_structure_a149aac6a5845720438768ca0a7b20e86}{{3.9}{10}{Public Member Functions}{section*.12}{}}
\newlabel{classnec__backend_1_1_structure_af801bba317356147c025ca4eea7f4adf}{{3.9}{10}{Static Public Member Functions}{section*.13}{}}
\newlabel{classnec__backend_1_1_structure_ac93afbb21e481130a050e4c481b1fd9f}{{3.9}{10}{Static Public Member Functions}{section*.13}{}}
\newlabel{classnec__backend_1_1_structure_ae058ba3251a3e37a4a9a9f3167895ae6}{{3.9}{10}{Static Public Member Functions}{section*.13}{}}
\@writefile{toc}{\contentsline {section}{\numberline {3.10}Structure\discretionary {\unhbox \voidb@x \hbox {\relax \fontsize  {7}{8}\selectfont  $\leftarrow \joinrel  \rhook $}}{}{}Test Class Reference}{11}{section.3.10}}
\newlabel{class_structure_test}{{3.10}{11}{Structure\+Test Class Reference}{section.3.10}{}}
\newlabel{class_structure_test_ab18821db8163067d1cd659c5d96e8ab5}{{3.10}{11}{Public Member Functions}{section*.14}{}}
\newlabel{class_structure_test_a6b1650ce791164c32db139833b3efca1}{{3.10}{11}{Public Member Functions}{section*.14}{}}
\newlabel{class_structure_test_a651c1b611bb2e094528dc083d8af2253}{{3.10}{11}{Public Member Functions}{section*.14}{}}
\newlabel{class_structure_test_a35f6bc2de1021b6ed8a8d011c0efd960}{{3.10}{11}{Public Member Functions}{section*.14}{}}
\@writefile{toc}{\contentsline {chapter}{Index}{13}{section*.15}}
