This is BibTeX, Version 0.99dThe top-level auxiliary file: main.aux
The style file: unsrt.bst
Database file #1: labprojref.bib
Warning--entry type for "radiationpatterns" isn't style-file defined
--line 11 of file labprojref.bib
(There was 1 warning)
