\relax 
\providecommand\hyper@newdestlabel[2]{}
\providecommand\HyperFirstAtBeginDocument{\AtBeginDocument}
\HyperFirstAtBeginDocument{\ifx\hyper@anchor\@undefined
\global\let\oldcontentsline\contentsline
\gdef\contentsline#1#2#3#4{\oldcontentsline{#1}{#2}{#3}}
\global\let\oldnewlabel\newlabel
\gdef\newlabel#1#2{\newlabelxx{#1}#2}
\gdef\newlabelxx#1#2#3#4#5#6{\oldnewlabel{#1}{{#2}{#3}}}
\AtEndDocument{\ifx\hyper@anchor\@undefined
\let\contentsline\oldcontentsline
\let\newlabel\oldnewlabel
\fi}
\fi}
\global\let\hyper@last\relax 
\gdef\HyperFirstAtBeginDocument#1{#1}
\providecommand\HyField@AuxAddToFields[1]{}
\providecommand\HyField@AuxAddToCoFields[2]{}
\citation{5156093,fekonumericalmethods}
\citation{fekonumericalmethods}
\@writefile{toc}{\contentsline {section}{\numberline {I}INTRODUCTION}{1}{section.1}}
\newlabel{sec:introduction}{{I}{1}{INTRODUCTION}{section.1}{}}
\@writefile{toc}{\contentsline {section}{\numberline {II}BACKGROUND UNDERSTANDING}{1}{section.2}}
\newlabel{sec:background}{{II}{1}{BACKGROUND UNDERSTANDING}{section.2}{}}
\@writefile{toc}{\contentsline {subsection}{\numberline {\unhbox \voidb@x \hbox {II-A}}Existing Solutions}{1}{subsection.2.1}}
\newlabel{existsolns}{{\unhbox \voidb@x \hbox {II-A}}{1}{Existing Solutions}{subsection.2.1}{}}
\@writefile{toc}{\contentsline {subsubsection}{\numberline {\unhbox \voidb@x \hbox {II-A}1}Computational Methods}{1}{subsubsection.2.1.1}}
\@writefile{toc}{\contentsline {subsubsection}{\numberline {\unhbox \voidb@x \hbox {II-A}2}Software Packages}{1}{subsubsection.2.1.2}}
\@writefile{lof}{\contentsline {figure}{\numberline {1}{\ignorespaces Isometric view of a driven dipole next to a parasitic element radiation pattern modelled in FEKO}}{1}{figure.1}}
\newlabel{fig:isometric}{{1}{1}{Isometric view of a driven dipole next to a parasitic element radiation pattern modelled in FEKO}{figure.1}{}}
\@writefile{toc}{\contentsline {subsection}{\numberline {\unhbox \voidb@x \hbox {II-B}}Technology Required}{1}{subsection.2.2}}
\newlabel{tech}{{\unhbox \voidb@x \hbox {II-B}}{1}{Technology Required}{subsection.2.2}{}}
\citation{radiationpatterns}
\@writefile{toc}{\contentsline {section}{\numberline {III}PROBLEM SPECIFICATION}{2}{section.3}}
\newlabel{sec:problem}{{III}{2}{PROBLEM SPECIFICATION}{section.3}{}}
\@writefile{toc}{\contentsline {subsection}{\numberline {\unhbox \voidb@x \hbox {III-A}}Requirements}{2}{subsection.3.1}}
\newlabel{reqs}{{\unhbox \voidb@x \hbox {III-A}}{2}{Requirements}{subsection.3.1}{}}
\@writefile{toc}{\contentsline {subsection}{\numberline {\unhbox \voidb@x \hbox {III-B}}Assumptions}{2}{subsection.3.2}}
\newlabel{assumps}{{\unhbox \voidb@x \hbox {III-B}}{2}{Assumptions}{subsection.3.2}{}}
\@writefile{toc}{\contentsline {subsection}{\numberline {\unhbox \voidb@x \hbox {III-C}}Constraints}{2}{subsection.3.3}}
\newlabel{consts}{{\unhbox \voidb@x \hbox {III-C}}{2}{Constraints}{subsection.3.3}{}}
\@writefile{toc}{\contentsline {subsection}{\numberline {\unhbox \voidb@x \hbox {III-D}}Success Criteria}{2}{subsection.3.4}}
\newlabel{succrit}{{\unhbox \voidb@x \hbox {III-D}}{2}{Success Criteria}{subsection.3.4}{}}
\@writefile{toc}{\contentsline {section}{\numberline {IV}PROPOSED METHODOLOGY}{2}{section.4}}
\newlabel{sec:methodology}{{IV}{2}{PROPOSED METHODOLOGY}{section.4}{}}
\@writefile{toc}{\contentsline {section}{\numberline {V}PROJECT MANAGEMENT}{2}{section.5}}
\newlabel{sec:projmang}{{V}{2}{PROJECT MANAGEMENT}{section.5}{}}
\@writefile{toc}{\contentsline {subsection}{\numberline {\unhbox \voidb@x \hbox {V-A}}Project Timeline}{2}{subsection.5.1}}
\newlabel{timeline}{{\unhbox \voidb@x \hbox {V-A}}{2}{Project Timeline}{subsection.5.1}{}}
\bibstyle{unsrt}
\bibdata{labprojref}
\bibcite{5156093}{1}
\bibcite{fekonumericalmethods}{2}
\bibcite{radiationpatterns}{3}
\@writefile{toc}{\contentsline {subsection}{\numberline {\unhbox \voidb@x \hbox {V-B}}Required Resources}{3}{subsection.5.2}}
\newlabel{reqresources}{{\unhbox \voidb@x \hbox {V-B}}{3}{Required Resources}{subsection.5.2}{}}
\@writefile{toc}{\contentsline {subsection}{\numberline {\unhbox \voidb@x \hbox {V-C}}Division of Labour}{3}{subsection.5.3}}
\newlabel{divisionoflabour}{{\unhbox \voidb@x \hbox {V-C}}{3}{Division of Labour}{subsection.5.3}{}}
\@writefile{toc}{\contentsline {subsubsection}{\numberline {\unhbox \voidb@x \hbox {V-C}1}Investigation of Existing Software}{3}{subsubsection.5.3.1}}
\@writefile{toc}{\contentsline {subsubsection}{\numberline {\unhbox \voidb@x \hbox {V-C}2}GUI}{3}{subsubsection.5.3.2}}
\@writefile{toc}{\contentsline {subsubsection}{\numberline {\unhbox \voidb@x \hbox {V-C}3}3D rendering}{3}{subsubsection.5.3.3}}
\@writefile{toc}{\contentsline {subsubsection}{\numberline {\unhbox \voidb@x \hbox {V-C}4}Backend and interfacing}{3}{subsubsection.5.3.4}}
\@writefile{toc}{\contentsline {subsubsection}{\numberline {\unhbox \voidb@x \hbox {V-C}5}Additional Features}{3}{subsubsection.5.3.5}}
\@writefile{toc}{\contentsline {subsubsection}{\numberline {\unhbox \voidb@x \hbox {V-C}6}Bug Fixing and Open Day prep}{3}{subsubsection.5.3.6}}
\@writefile{toc}{\contentsline {subsubsection}{\numberline {\unhbox \voidb@x \hbox {V-C}7}Documentation}{3}{subsubsection.5.3.7}}
\@writefile{toc}{\contentsline {subsubsection}{\numberline {\unhbox \voidb@x \hbox {V-C}8}Presentation}{3}{subsubsection.5.3.8}}
\@writefile{toc}{\contentsline {section}{\numberline {VI}CONCLUSION}{3}{section.6}}
\newlabel{sec:conclusion}{{VI}{3}{CONCLUSION}{section.6}{}}
\@writefile{toc}{\contentsline {section}{References}{3}{section*.1}}
\@writefile{toc}{\contentsline {section}{Appendix\nobreakspace  {}A: Tables and Gantt Chart}{4}{section*.2}}
\newlabel{app}{{A}{4}{\appendixname ~\thesectiondis \\* Tables and Gantt Chart}{section*.2}{}}
\@writefile{lot}{\contentsline {table}{\numberline {I}{\ignorespaces Table Showing The Proposed Division of Labour Between Engineers}}{4}{table.1}}
\newlabel{tab:labour}{{I}{4}{Table Showing The Proposed Division of Labour Between Engineers}{table.1}{}}
\@writefile{lof}{\contentsline {figure}{\numberline {2}{\ignorespaces Table to be used to compare software packages}}{4}{figure.2}}
\newlabel{fig:comptable}{{2}{4}{Table to be used to compare software packages}{figure.2}{}}
\@writefile{lof}{\contentsline {figure}{\numberline {3}{\ignorespaces Gantt Chart for Open Source EM Solver}}{5}{figure.3}}
\newlabel{fig:gantt}{{3}{5}{Gantt Chart for Open Source EM Solver}{figure.3}{}}
